%YAML 1.1
%TAG !u! tag:unity3d.com,2011:
--- !u!74 &7400000
AnimationClip:
  m_ObjectHideFlags: 0
  m_PrefabParentObject: {fileID: 0}
  m_PrefabInternal: {fileID: 0}
  m_Name: MoleAnim
  serializedVersion: 6
  m_Legacy: 0
  m_Compressed: 0
  m_UseHighQualityCurve: 1
  m_RotationCurves: []
  m_CompressedRotationCurves: []
  m_EulerCurves: []
  m_PositionCurves: []
  m_ScaleCurves: []
  m_FloatCurves: []
  m_PPtrCurves:
  - curve:
    - time: 0.0008333333
      value: {fileID: 21300000, guid: 231449f253e11f64f8789b647a3932b4, type: 3}
    - time: 0.083333336
      value: {fileID: 21300000, guid: 794e3a2ba7945324f82d8e61ac5a2b00, type: 3}
    - time: 0.16666667
      value: {fileID: 21300000, guid: 0c6fb0f5b21945343bd380959d819623, type: 3}
    - time: 0.25
      value: {fileID: 21300000, guid: 2026233c6773dbf46baedc2c131b9b06, type: 3}
    - time: 0.33333334
      value: {fileID: 21300000, guid: 1fd7e3f4bfaea0e48b913ad2776fba67, type: 3}
    - time: 0.41666666
      value: {fileID: 21300000, guid: a7eb9d0b362d10c46acccf5165c51c84, type: 3}
    - time: 0.5
      value: {fileID: 21300000, guid: bc7f057f766916c4daf179cf431f6676, type: 3}
    - time: 0.5833333
      value: {fileID: 21300000, guid: e6bd77930cad1b44fb1770e175c7cc78, type: 3}
    - time: 0.6666667
      value: {fileID: 21300000, guid: 528b924b384c77a4193bcad7d5eba292, type: 3}
    - time: 0.75
      value: {fileID: 21300000, guid: 7024037448ade3a4fa23437fff3e6931, type: 3}
    - time: 0.8333333
      value: {fileID: 21300000, guid: fa4e6b22316292344be17de6fd02ba9f, type: 3}
    - time: 0.9166667
      value: {fileID: 21300000, guid: 1fb05bd1227b25a49968995d9c49ad40, type: 3}
    attribute: m_Sprite
    path: 
    classID: 212
    script: {fileID: 0}
  m_SampleRate: 12
  m_WrapMode: 0
  m_Bounds:
    m_Center: {x: 0, y: 0, z: 0}
    m_Extent: {x: 0, y: 0, z: 0}
  m_ClipBindingConstant:
    genericBindings:
    - path: 0
      attribute: 0
      script: {fileID: 0}
      classID: 212
      customType: 23
      isPPtrCurve: 1
    pptrCurveMapping:
    - {fileID: 21300000, guid: 231449f253e11f64f8789b647a3932b4, type: 3}
    - {fileID: 21300000, guid: 794e3a2ba7945324f82d8e61ac5a2b00, type: 3}
    - {fileID: 21300000, guid: 0c6fb0f5b21945343bd380959d819623, type: 3}
    - {fileID: 21300000, guid: 2026233c6773dbf46baedc2c131b9b06, type: 3}
    - {fileID: 21300000, guid: 1fd7e3f4bfaea0e48b913ad2776fba67, type: 3}
    - {fileID: 21300000, guid: a7eb9d0b362d10c46acccf5165c51c84, type: 3}
    - {fileID: 21300000, guid: bc7f057f766916c4daf179cf431f6676, type: 3}
    - {fileID: 21300000, guid: e6bd77930cad1b44fb1770e175c7cc78, type: 3}
    - {fileID: 21300000, guid: 528b924b384c77a4193bcad7d5eba292, type: 3}
    - {fileID: 21300000, guid: 7024037448ade3a4fa23437fff3e6931, type: 3}
    - {fileID: 21300000, guid: fa4e6b22316292344be17de6fd02ba9f, type: 3}
    - {fileID: 21300000, guid: 1fb05bd1227b25a49968995d9c49ad40, type: 3}
  m_AnimationClipSettings:
    serializedVersion: 2
    m_AdditiveReferencePoseClip: {fileID: 0}
    m_AdditiveReferencePoseTime: 0
    m_StartTime: 0
    m_StopTime: 1
    m_OrientationOffsetY: 0
    m_Level: 0
    m_CycleOffset: 0
    m_HasAdditiveReferencePose: 0
    m_LoopTime: 1
    m_LoopBlend: 0
    m_LoopBlendOrientation: 0
    m_LoopBlendPositionY: 0
    m_LoopBlendPositionXZ: 0
    m_KeepOriginalOrientation: 0
    m_KeepOriginalPositionY: 1
    m_KeepOriginalPositionXZ: 0
    m_HeightFromFeet: 0
    m_Mirror: 0
  m_EditorCurves: []
  m_EulerEditorCurves: []
  m_HasGenericRootTransform: 0
  m_HasMotionFloatCurves: 0
  m_GenerateMotionCurves: 0
  m_Events:
  - time: 0
    functionName: ColliderChange
    data: 
    objectReferenceParameter: {fileID: 0}
    floatParameter: 0
    intParameter: 0
    messageOptions: 0
